<svg id="Component_19_1" data-name="Component 19 – 1" xmlns="http://www.w3.org/2000/svg" width="22.76" height="25.156" viewBox="0 0 22.76 25.156">
  <path id="Path_229" data-name="Path 229" d="M15.979,16.875v9.281H4a9.583,9.583,0,0,1,11.979-9.281Zm-2.4-1.5a7.187,7.187,0,1,1,7.187-7.187A7.185,7.185,0,0,1,13.583,15.375Zm7.187,4.792V16.573h2.4v3.594H26.76v2.4H23.167v3.594h-2.4V22.562H17.177v-2.4Z" transform="translate(-4 -1)" fill="#707070"/>
</svg>
