<svg xmlns="http://www.w3.org/2000/svg" width="13.458" height="15.701" viewBox="0 0 13.458 15.701">
  <path id="Path_40" data-name="Path 40" d="M9.981,10.72V16.7H4A5.981,5.981,0,0,1,9.981,10.72Zm0-.748a4.486,4.486,0,1,1,4.486-4.486A4.485,4.485,0,0,1,9.981,9.972Zm6.729,2.991h.748V16.7H11.477V12.963h.748v-.748a2.243,2.243,0,1,1,4.486,0Zm-1.5,0v-.748a.748.748,0,0,0-1.5,0v.748Z" transform="translate(-4 -1)"/>
</svg>
