<svg xmlns="http://www.w3.org/2000/svg" width="16.93" height="16.93" viewBox="0 0 16.93 16.93">
  <path id="Path_7" data-name="Path 7" d="M7.925,11.158V13.7H13V11.158H18.93v5.925a.846.846,0,0,1-.846.846H2.846A.846.846,0,0,1,2,17.083V11.158ZM9.618,9.465h1.693V12H9.618ZM6.232,4.386V1.846A.846.846,0,0,1,7.079,1h6.772a.846.846,0,0,1,.846.846V4.386h3.386a.846.846,0,0,1,.846.846V9.465H13V7.772H7.925V9.465H2V5.232a.846.846,0,0,1,.846-.846ZM7.925,2.693V4.386H13V2.693Z" transform="translate(-2 -1)" />
</svg>
