<svg id="Component_10_3" data-name="Component 10 – 3" xmlns="http://www.w3.org/2000/svg" width="22.992" height="25.547" viewBox="0 0 22.992 25.547">
  <path id="Path_274" data-name="Path 274" d="M19.605,2l6.387,6.387V26.28a1.268,1.268,0,0,1-1.268,1.267H4.268A1.277,1.277,0,0,1,3,26.28V3.267A1.268,1.268,0,0,1,4.268,2ZM15.773,14.773h3.832L14.5,9.664,9.387,14.773h3.832v5.109h2.555Z" transform="translate(-3 -2)" fill="#707070"/>
</svg>
