<svg xmlns="http://www.w3.org/2000/svg" width="13.543" height="16.929" viewBox="0 0 13.543 16.929">
  <path id="Path_271" data-name="Path 271" d="M4.846,17.236H16.7v1.693H4.846Zm5.925-1.693a6.771,6.771,0,1,1,6.771-6.771A6.771,6.771,0,0,1,10.771,15.543Z" transform="translate(-4 -2)" fill="#6c0e23"/>
</svg>
