<svg xmlns="http://www.w3.org/2000/svg" width="18.735" height="21.733" viewBox="0 0 18.735 21.733">
  <path id="Path_313" data-name="Path 313" d="M13,14.056v7.934H4a8,8,0,0,1,9-7.934Zm-1-1.062a6,6,0,1,1,6-6A6,6,0,0,1,12,12.995Zm5.79,6.911,3.533-3.533,1.414,1.413-4.948,4.948L14.252,19.2l1.414-1.413,2.119,2.12Z" transform="translate(-4 -1)" fill="#aaa"/>
</svg>
