<svg xmlns="http://www.w3.org/2000/svg" width="11.457" height="12.06" viewBox="0 0 11.457 12.06">
  <path id="Path_60" data-name="Path 60" d="M4.6,14.06a.6.6,0,0,1-.6-.6V2.6A.6.6,0,0,1,4.6,2h8.442a.6.6,0,0,1,.6.6V4.412H12.442V3.206H5.206v9.648h7.236V11.648h1.206v1.809a.6.6,0,0,1-.6.6Zm7.839-3.618V8.633H8.221V7.427h4.221V5.618L15.457,8.03Z" transform="translate(-4 -2)" fill="#35475d"/>
</svg>
