<svg xmlns="http://www.w3.org/2000/svg" width="16.625" height="19" viewBox="0 0 16.625 19">
  <path id="Icon_awesome-user-injured" data-name="Icon awesome-user-injured" d="M10.293.445A4.715,4.715,0,0,0,3.915,2.969H6.928ZM12.71,2.969a4.739,4.739,0,0,0-1.354-1.838L8.906,2.969h3.8ZM8.313,9.5a4.75,4.75,0,0,0,4.75-4.75A4.745,4.745,0,0,0,13,4.156H3.622a4.677,4.677,0,0,0-.06.594A4.75,4.75,0,0,0,8.313,9.5ZM2.969,11.122V19h4.76L4.075,10.78a4.929,4.929,0,0,0-1.106.342ZM0,17.219A1.781,1.781,0,0,0,1.781,19V11.884A4.954,4.954,0,0,0,0,15.675Zm9.5-1.781H7.445L9.028,19H9.5a1.781,1.781,0,1,0,0-3.563Zm2.138-4.75h-.62a6.458,6.458,0,0,1-5.41,0H5.334L6.918,14.25H9.5a2.972,2.972,0,0,1,2.969,2.969A2.94,2.94,0,0,1,11.86,19h2.984a1.781,1.781,0,0,0,1.781-1.781V15.675A4.987,4.987,0,0,0,11.638,10.688Z" />
</svg>
