<svg xmlns="http://www.w3.org/2000/svg" width="16.314" height="16.314" viewBox="0 0 16.314 16.314">
  <g id="Group_6" data-name="Group 6" transform="translate(-2 -2)">
    <path id="Path_1" data-name="Path 1" d="M9.228,2A7.228,7.228,0,1,1,2,9.228,7.23,7.23,0,0,1,9.228,2Zm0,12.849A5.622,5.622,0,1,0,3.606,9.228,5.621,5.621,0,0,0,9.228,14.849Zm6.814.057,2.272,2.271-1.136,1.136-2.271-2.272,1.136-1.136Z" transform="translate(0)" fill="#fff"/>
  </g>
</svg>
